{
  "@mapping" : {
    "type" : "String [FACTORY, FACTORY_INSTANCE, CONFIGURABLE_INSTANCE] (The type of config.)",
    "name" : "String * (The full name of the config.)",
    "sliceConfig" : "Boolean (Indicates whether the config is a LimeDS config.)",
    "configuration" : [
      {
        "@typeRef" : "org.ibcn.limeds.api.types.ConfigProperty_*"
      }
    ]
  }
}